aac_whenl.vcd
$date
	Fri Nov 06 13:29:16 2020
$end
$version
	GTKWave Analyzer v3.3.81 (w)1999-2017 BSI
$end
$timescale
	1ps
$end
$scope module test $end
$scope module u0 $end
$scope module sec_inst_assertion_SP01_RECEIVE_M_AXI_BID $end
$var wire 1 L! M_AXI_AWID[0] $end
$var wire 1 &! M_AXI_AWADDR[31] $end
$var wire 1 '! M_AXI_AWADDR[30] $end
$var wire 1 (! M_AXI_AWADDR[29] $end
$var wire 1 )! M_AXI_AWADDR[28] $end
$var wire 1 *! M_AXI_AWADDR[27] $end
$var wire 1 +! M_AXI_AWADDR[26] $end
$var wire 1 ,! M_AXI_AWADDR[25] $end
$var wire 1 -! M_AXI_AWADDR[24] $end
$var wire 1 .! M_AXI_AWADDR[23] $end
$var wire 1 /! M_AXI_AWADDR[22] $end
$var wire 1 0! M_AXI_AWADDR[21] $end
$var wire 1 1! M_AXI_AWADDR[20] $end
$var wire 1 2! M_AXI_AWADDR[19] $end
$var wire 1 3! M_AXI_AWADDR[18] $end
$var wire 1 4! M_AXI_AWADDR[17] $end
$var wire 1 5! M_AXI_AWADDR[16] $end
$var wire 1 6! M_AXI_AWADDR[15] $end
$var wire 1 7! M_AXI_AWADDR[14] $end
$var wire 1 8! M_AXI_AWADDR[13] $end
$var wire 1 9! M_AXI_AWADDR[12] $end
$var wire 1 :! M_AXI_AWADDR[11] $end
$var wire 1 ;! M_AXI_AWADDR[10] $end
$var wire 1 <! M_AXI_AWADDR[9] $end
$var wire 1 =! M_AXI_AWADDR[8] $end
$var wire 1 >! M_AXI_AWADDR[7] $end
$var wire 1 ?! M_AXI_AWADDR[6] $end
$var wire 1 @! M_AXI_AWADDR[5] $end
$var wire 1 A! M_AXI_AWADDR[4] $end
$var wire 1 B! M_AXI_AWADDR[3] $end
$var wire 1 C! M_AXI_AWADDR[2] $end
$var wire 1 D! M_AXI_AWADDR[1] $end
$var wire 1 E! M_AXI_AWADDR[0] $end
$var wire 1 M! M_AXI_AWLEN[7] $end
$var wire 1 N! M_AXI_AWLEN[6] $end
$var wire 1 O! M_AXI_AWLEN[5] $end
$var wire 1 P! M_AXI_AWLEN[4] $end
$var wire 1 Q! M_AXI_AWLEN[3] $end
$var wire 1 R! M_AXI_AWLEN[2] $end
$var wire 1 S! M_AXI_AWLEN[1] $end
$var wire 1 T! M_AXI_AWLEN[0] $end
$var wire 1 ^! M_AXI_AWSIZE[2] $end
$var wire 1 _! M_AXI_AWSIZE[1] $end
$var wire 1 `! M_AXI_AWSIZE[0] $end
$var wire 1 F! M_AXI_AWBURST[1] $end
$var wire 1 G! M_AXI_AWBURST[0] $end
$var wire 1 H! M_AXI_AWCACHE[3] $end
$var wire 1 I! M_AXI_AWCACHE[2] $end
$var wire 1 J! M_AXI_AWCACHE[1] $end
$var wire 1 K! M_AXI_AWCACHE[0] $end
$var wire 1 V! M_AXI_AWPROT[2] $end
$var wire 1 W! M_AXI_AWPROT[1] $end
$var wire 1 X! M_AXI_AWPROT[0] $end
$var wire 1 Y! M_AXI_AWQOS[3] $end
$var wire 1 Z! M_AXI_AWQOS[2] $end
$var wire 1 [! M_AXI_AWQOS[1] $end
$var wire 1 \! M_AXI_AWQOS[0] $end
$var wire 1 /" M_AXI_WDATA[31] $end
$var wire 1 0" M_AXI_WDATA[30] $end
$var wire 1 1" M_AXI_WDATA[29] $end
$var wire 1 2" M_AXI_WDATA[28] $end
$var wire 1 3" M_AXI_WDATA[27] $end
$var wire 1 4" M_AXI_WDATA[26] $end
$var wire 1 5" M_AXI_WDATA[25] $end
$var wire 1 6" M_AXI_WDATA[24] $end
$var wire 1 7" M_AXI_WDATA[23] $end
$var wire 1 8" M_AXI_WDATA[22] $end
$var wire 1 9" M_AXI_WDATA[21] $end
$var wire 1 :" M_AXI_WDATA[20] $end
$var wire 1 ;" M_AXI_WDATA[19] $end
$var wire 1 <" M_AXI_WDATA[18] $end
$var wire 1 =" M_AXI_WDATA[17] $end
$var wire 1 >" M_AXI_WDATA[16] $end
$var wire 1 ?" M_AXI_WDATA[15] $end
$var wire 1 @" M_AXI_WDATA[14] $end
$var wire 1 A" M_AXI_WDATA[13] $end
$var wire 1 B" M_AXI_WDATA[12] $end
$var wire 1 C" M_AXI_WDATA[11] $end
$var wire 1 D" M_AXI_WDATA[10] $end
$var wire 1 E" M_AXI_WDATA[9] $end
$var wire 1 F" M_AXI_WDATA[8] $end
$var wire 1 G" M_AXI_WDATA[7] $end
$var wire 1 H" M_AXI_WDATA[6] $end
$var wire 1 I" M_AXI_WDATA[5] $end
$var wire 1 J" M_AXI_WDATA[4] $end
$var wire 1 K" M_AXI_WDATA[3] $end
$var wire 1 L" M_AXI_WDATA[2] $end
$var wire 1 M" M_AXI_WDATA[1] $end
$var wire 1 N" M_AXI_WDATA[0] $end
$var wire 1 Q" M_AXI_WSTRB[3] $end
$var wire 1 R" M_AXI_WSTRB[2] $end
$var wire 1 S" M_AXI_WSTRB[1] $end
$var wire 1 T" M_AXI_WSTRB[0] $end
$var wire 1 b! M_AXI_BID[0] $end
$var wire 1 d! M_AXI_BRESP[1] $end
$var wire 1 e! M_AXI_BRESP[0] $end
$var wire 1 n M_AXI_ARID[0] $end
$var wire 1 H M_AXI_ARADDR[31] $end
$var wire 1 I M_AXI_ARADDR[30] $end
$var wire 1 J M_AXI_ARADDR[29] $end
$var wire 1 K M_AXI_ARADDR[28] $end
$var wire 1 L M_AXI_ARADDR[27] $end
$var wire 1 M M_AXI_ARADDR[26] $end
$var wire 1 N M_AXI_ARADDR[25] $end
$var wire 1 O M_AXI_ARADDR[24] $end
$var wire 1 P M_AXI_ARADDR[23] $end
$var wire 1 Q M_AXI_ARADDR[22] $end
$var wire 1 R M_AXI_ARADDR[21] $end
$var wire 1 S M_AXI_ARADDR[20] $end
$var wire 1 T M_AXI_ARADDR[19] $end
$var wire 1 U M_AXI_ARADDR[18] $end
$var wire 1 V M_AXI_ARADDR[17] $end
$var wire 1 W M_AXI_ARADDR[16] $end
$var wire 1 X M_AXI_ARADDR[15] $end
$var wire 1 Y M_AXI_ARADDR[14] $end
$var wire 1 Z M_AXI_ARADDR[13] $end
$var wire 1 [ M_AXI_ARADDR[12] $end
$var wire 1 \ M_AXI_ARADDR[11] $end
$var wire 1 ] M_AXI_ARADDR[10] $end
$var wire 1 ^ M_AXI_ARADDR[9] $end
$var wire 1 _ M_AXI_ARADDR[8] $end
$var wire 1 ` M_AXI_ARADDR[7] $end
$var wire 1 a M_AXI_ARADDR[6] $end
$var wire 1 b M_AXI_ARADDR[5] $end
$var wire 1 c M_AXI_ARADDR[4] $end
$var wire 1 d M_AXI_ARADDR[3] $end
$var wire 1 e M_AXI_ARADDR[2] $end
$var wire 1 f M_AXI_ARADDR[1] $end
$var wire 1 g M_AXI_ARADDR[0] $end
$var wire 1 o M_AXI_ARLEN[7] $end
$var wire 1 p M_AXI_ARLEN[6] $end
$var wire 1 q M_AXI_ARLEN[5] $end
$var wire 1 r M_AXI_ARLEN[4] $end
$var wire 1 s M_AXI_ARLEN[3] $end
$var wire 1 t M_AXI_ARLEN[2] $end
$var wire 1 u M_AXI_ARLEN[1] $end
$var wire 1 v M_AXI_ARLEN[0] $end
$var wire 1 "! M_AXI_ARSIZE[2] $end
$var wire 1 #! M_AXI_ARSIZE[1] $end
$var wire 1 $! M_AXI_ARSIZE[0] $end
$var wire 1 h M_AXI_ARBURST[1] $end
$var wire 1 i M_AXI_ARBURST[0] $end
$var wire 1 j M_AXI_ARCACHE[3] $end
$var wire 1 k M_AXI_ARCACHE[2] $end
$var wire 1 l M_AXI_ARCACHE[1] $end
$var wire 1 m M_AXI_ARCACHE[0] $end
$var wire 1 x M_AXI_ARPROT[2] $end
$var wire 1 y M_AXI_ARPROT[1] $end
$var wire 1 z M_AXI_ARPROT[0] $end
$var wire 1 { M_AXI_ARQOS[3] $end
$var wire 1 | M_AXI_ARQOS[2] $end
$var wire 1 } M_AXI_ARQOS[1] $end
$var wire 1 ~ M_AXI_ARQOS[0] $end
$var wire 1 )" M_AXI_RID[0] $end
$var wire 1 g! M_AXI_RDATA[31] $end
$var wire 1 h! M_AXI_RDATA[30] $end
$var wire 1 i! M_AXI_RDATA[29] $end
$var wire 1 j! M_AXI_RDATA[28] $end
$var wire 1 k! M_AXI_RDATA[27] $end
$var wire 1 l! M_AXI_RDATA[26] $end
$var wire 1 m! M_AXI_RDATA[25] $end
$var wire 1 n! M_AXI_RDATA[24] $end
$var wire 1 o! M_AXI_RDATA[23] $end
$var wire 1 p! M_AXI_RDATA[22] $end
$var wire 1 q! M_AXI_RDATA[21] $end
$var wire 1 r! M_AXI_RDATA[20] $end
$var wire 1 s! M_AXI_RDATA[19] $end
$var wire 1 t! M_AXI_RDATA[18] $end
$var wire 1 u! M_AXI_RDATA[17] $end
$var wire 1 v! M_AXI_RDATA[16] $end
$var wire 1 w! M_AXI_RDATA[15] $end
$var wire 1 x! M_AXI_RDATA[14] $end
$var wire 1 y! M_AXI_RDATA[13] $end
$var wire 1 z! M_AXI_RDATA[12] $end
$var wire 1 {! M_AXI_RDATA[11] $end
$var wire 1 |! M_AXI_RDATA[10] $end
$var wire 1 }! M_AXI_RDATA[9] $end
$var wire 1 ~! M_AXI_RDATA[8] $end
$var wire 1 !" M_AXI_RDATA[7] $end
$var wire 1 "" M_AXI_RDATA[6] $end
$var wire 1 #" M_AXI_RDATA[5] $end
$var wire 1 $" M_AXI_RDATA[4] $end
$var wire 1 %" M_AXI_RDATA[3] $end
$var wire 1 &" M_AXI_RDATA[2] $end
$var wire 1 '" M_AXI_RDATA[1] $end
$var wire 1 (" M_AXI_RDATA[0] $end
$var wire 1 ," M_AXI_RRESP[1] $end
$var wire 1 -" M_AXI_RRESP[0] $end
$var wire 1 V" ARESETN $end
$var wire 1 U! M_AXI_AWLOCK $end
$var wire 1 a! M_AXI_AWVALID $end
$var wire 1 ]! M_AXI_AWREADY $end
$var wire 1 O" M_AXI_WLAST $end
$var wire 1 U" M_AXI_WVALID $end
$var wire 1 P" M_AXI_WREADY $end
$var wire 1 f! M_AXI_BVALID $end
$var wire 1 c! M_AXI_BREADY $end
$var wire 1 w M_AXI_ARLOCK $end
$var wire 1 %! M_AXI_ARVALID $end
$var wire 1 !! M_AXI_ARREADY $end
$var wire 1 *" M_AXI_RLAST $end
$var wire 1 ." M_AXI_RVALID $end
$var wire 1 +" M_AXI_RREADY $end
$var wire 1 , whenl_assertion_SP01_RECEIVE_M_AXI_WREADY $end
$var wire 1 " whenl_assertion_SP01_RECEIVE_M_AXI_BID $end
$var wire 1 # whenl_assertion_SP01_RECEIVE_M_AXI_BRESP $end
$var wire 1 $ whenl_assertion_SP01_RECEIVE_M_AXI_BUSER $end
$var wire 1 % whenl_assertion_SP01_RECEIVE_M_AXI_BVALID $end
$var wire 1 ' whenl_assertion_SP01_RECEIVE_M_AXI_RID $end
$var wire 1 & whenl_assertion_SP01_RECEIVE_M_AXI_RDATA $end
$var wire 1 ) whenl_assertion_SP01_RECEIVE_M_AXI_RRESP $end
$var wire 1 ( whenl_assertion_SP01_RECEIVE_M_AXI_RLAST $end
$var wire 1 * whenl_assertion_SP01_RECEIVE_M_AXI_RUSER $end
$var wire 1 + whenl_assertion_SP01_RECEIVE_M_AXI_RVALID $end
$var wire 1 : whenl_assertion_SP01_SEND_M_AXI_AWID $end
$var wire 1 7 whenl_assertion_SP01_SEND_M_AXI_AWADDR $end
$var wire 1 ; whenl_assertion_SP01_SEND_M_AXI_AWLEN $end
$var wire 1 ? whenl_assertion_SP01_SEND_M_AXI_AWSIZE $end
$var wire 1 8 whenl_assertion_SP01_SEND_M_AXI_AWBURST $end
$var wire 1 < whenl_assertion_SP01_SEND_M_AXI_AWLOCK $end
$var wire 1 9 whenl_assertion_SP01_SEND_M_AXI_AWCACHE $end
$var wire 1 = whenl_assertion_SP01_SEND_M_AXI_AWPROT $end
$var wire 1 > whenl_assertion_SP01_SEND_M_AXI_AWQOS $end
$var wire 1 @ whenl_assertion_SP01_SEND_M_AXI_AWUSER $end
$var wire 1 C whenl_assertion_SP01_SEND_M_AXI_WDATA $end
$var wire 1 E whenl_assertion_SP01_SEND_M_AXI_WSTRB $end
$var wire 1 D whenl_assertion_SP01_SEND_M_AXI_WLAST $end
$var wire 1 F whenl_assertion_SP01_SEND_M_AXI_WUSER $end
$var wire 1 G whenl_assertion_SP01_SEND_M_AXI_WVALID $end
$var wire 1 A whenl_assertion_SP01_SEND_M_AXI_BREADY $end
$var wire 1 B whenl_assertion_SP01_SEND_M_AXI_RREADY $end
$var wire 1 0 whenl_assertion_SP01_SEND_M_AXI_ARID $end
$var wire 1 - whenl_assertion_SP01_SEND_M_AXI_ARADDR $end
$var wire 1 1 whenl_assertion_SP01_SEND_M_AXI_ARLEN $end
$var wire 1 5 whenl_assertion_SP01_SEND_M_AXI_ARSIZE $end
$var wire 1 . whenl_assertion_SP01_SEND_M_AXI_ARBURST $end
$var wire 1 2 whenl_assertion_SP01_SEND_M_AXI_ARLOCK $end
$var wire 1 / whenl_assertion_SP01_SEND_M_AXI_ARCACHE $end
$var wire 1 3 whenl_assertion_SP01_SEND_M_AXI_ARPROT $end
$var wire 1 4 whenl_assertion_SP01_SEND_M_AXI_ARQOS $end
$var wire 1 6 whenl_assertion_SP01_SEND_M_AXI_ARUSER $end
$upscope $end
$upscope $end
$upscope $end
$enddefinitions $end
$dumpvars
#0
xe
xU!
xD"
xh
xq
x5"
x(!
xL!
x&!
xD!
x,!
x4!
x7"
x6"
xf
xg
xE!
xo
xp
x$!
x9"
xs
xr
x8"
xM!
xt
x5!
x;"
x:"
xu
xv
xN!
x"!
x#!
xi!
xy
x="
xj
x<"
xi
xO!
x-!
x6!
x?"
x>"
xk
xl
xP!
xm
xx
xh!
xA"
x{
xz
x@"
xQ!
x|
x7!
xC"
xB"
x}
x~
xR!
x)"
xg!
xd!
xy!
xp!
xE"
x)!
xj!
xk!
xS!
x.!
x8!
xG"
xF"
xl!
xm!
xT!
xn!
xo!
xx!
xI"
xr!
xq!
xH"
x^!
xs!
x9!
xK"
xJ"
xt!
xu!
x_!
xv!
xw!
1V"
x""
xM"
x{!
xL"
xz!
x`!
x/!
x:!
xQ"
xN"
x|!
x}!
xF!
x~!
x!"
x-"
xS"
x$"
x#"
xR"
xG!
x%"
x;!
xb!
xT"
x&"
x'"
xH!
x("
x,"
xd
xU
0"
xf!
xe!
x*!
xa!
x'!
xI!
x0!
x<!
xH
xn
1]!
xO"
xJ!
0U"
1P"
0,
xJ
xw
xc!
xI
xK!
x%!
x=!
xL
xK
1!!
x*"
xV!
x."
x+"
09
0(
xN
0$
xM
0#
xW!
x1!
x>!
xP
xO
0%
0'
xX!
0&
0)
0<
xR
0+
0*
xQ
xY!
0:
x?!
xT
xS
07
0;
xZ!
0?
08
x4"
02
0F
xV
x+!
0=
0>
x[!
x2!
x@!
xX
xW
0@
0C
x\!
0E
0D
0.
xZ
0A
0G
xY
x/"
0B
xA!
x\
x[
00
0-
x0"
01
05
xc
06
xB!
03
x]
0/
x3!
04
x1"
x^
xb
x`
x_
x2"
x3"
xa
xC!
#40000
0C!
0R!
0v
0f
0(!
0D"
0e
0U!
05"
0h
0q
06"
0D!
0L!
0&!
07"
0,!
04!
0u
0s
0o
0g
0E!
09"
0p
0$!
0:"
0M!
0r
08"
0;"
0t
05!
0~
0k
0j
0#!
0N!
0"!
0="
0y
0>"
0O!
0<"
0i
0?"
0-!
06!
0}
0{
0m
0l
0P!
0A"
0x
0B"
0Q!
0z
0@"
0C"
0|
07!
0H!
0)!
0E"
0F"
0S!
0G"
0.!
08!
0T!
0I"
0J"
0^!
0H"
0K"
09!
0_!
0M"
0V"
0N"
0`!
0L"
0Q"
0/!
0:!
0F!
0S"
0T"
0G!
0R"
0;!
0a
0Z!
0*!
0U
0d
1"
0n
0I!
0a!
0'!
0H
00!
0<!
0w
0O"
0J!
0J
1,
0K
0K!
0c!
0I
0L
0%!
0=!
1;
1%
1$
0+"
0V!
0N
19
1(
0O
0W!
0M
1#
0P
01!
0>!
17
1+
1&
1'
0X!
0R
1)
1<
0S
0Y!
1*
0Q
0T
1:
0?!
03"
1-
1@
0+!
04"
1?
18
0V
12
1F
0W
0[!
1=
1>
0X
02!
0@!
10
1A
1E
1C
0\!
0Z
1D
1.
0[
0/"
1G
0Y
0\
1B
0A!
02"
1/
16
15
00"
11
0c
0]
0B!
13
0_
01"
03!
14
0`
0^
0b
#80000
1V"
0"
1c!
0,
0$
0%
0;
1+"
09
0(
0*
0&
0#
0+
07
0'
0)
0<
0=
0:
0-
0@
0?
08
02
0F
0G
0E
0>
0A
00
0C
0D
0.
04
01
0/
0B
06
05
03
#120000
0("
0i!
0h!
0u!
0d!
0)"
0g!
0l!
0y!
0p!
0j!
0k!
0r!
0m!
0n!
0t!
0o!
0x!
0q!
0s!
0{!
0w!
0v!
0'"
0|!
0""
0z!
0$"
0}!
0~!
0&"
0!"
0-"
0#"
0%"
0b!
0*"
0,"
0e!
0f!
0."
#370000
xs
x#!
xi
xm
xl
xJ
xK
x%!
#380000
x+"
#400000
xe
xb
#430000
xa
xd
#530000
1."
#590000
1*"
#600000
0*"
0."
#710000
1."
1("
#770000
1*"
#780000
0*"
0."
#890000
1."
1'"
0("
#950000
1*"
#960000
0*"
0."
#1070000
1."
1("
#1130000
1*"
#1140000
0*"
0."
#1190000
x(!
x&!
xQ!
xR"
xG!
xT"
x_!
xS"
xQ"
xa!
xJ!
xK!
#1200000
xU"
#1210000
xN"
#1220000
0N"
xC!
xM"
x@!
#1230000
xN"
#1240000
0N"
xL"
0M"
#1250000
xN"
x?!
xB!
#1260000
xM"
0N"
#1270000
xN"
#1280000
0N"
xK"
0M"
xO"
0L"
#1290000
0O"
0K"
xc!
#1300000
xN"
#1310000
0N"
xM"
#1320000
xN"
#1330000
0N"
0M"
1f!
xL"
#1340000
0f!
xN"
#1350000
0N"
xM"
#1360000
xN"
#1370000
0N"
0M"
xO"
0L"
xK"
#1380000
0K"
0O"
#1390000
xN"
#1400000
0N"
xM"
#1410000
xN"
#1420000
0N"
0M"
1f!
xL"
#1430000
0f!
xN"
#1440000
0N"
xM"
#1450000
xN"
#1460000
0N"
0M"
0L"
xO"
xK"
#1470000
0K"
0O"
#1480000
xN"
#1490000
0N"
xM"
#1500000
xN"
#1510000
0N"
0M"
xL"
1f!
#1520000
0f!
xN"
#1530000
0N"
xM"
#1540000
xN"
#1550000
0N"
0M"
0L"
xO"
xK"
#1560000
0K"
0U"
0O"
#1600000
1f!
