trace_proc_blank.vcd
$date
	Thu Sep 27 17:08:54 2018
$end
$version
	GTKWave Analyzer v3.3.86 (w)1999-2017 BSI
$end
$timescale
	1s
$end
$scope module orpsoc_coherent_tb $end
$scope module dut $end
$scope module gen_cores[0] $end
$scope module mor1kx0 $end
$scope module mor1kx_cpu $end
$scope module cappuccino $end
$scope module mor1kx_cpu $end
$var wire 32 : ctrl_epcr_o[31:0] $end
$var wire 32 . ctrl_lsu_adr_o[31:0] $end
$var wire 5 / ctrl_rfd_adr_o[4:0] $end
$var wire 32 0 dbus_adr_o[31:0] $end
$var wire 32 ' dbus_dat_i[31:0] $end
$var wire 32 ( dbus_dat_o[31:0] $end
$var wire 5 1 decode_rfa_adr_o[4:0] $end
$var wire 5 2 decode_rfb_adr_o[4:0] $end
$var wire 5 3 decode_rfd_adr_o[4:0] $end
$var wire 32 ) du_dat_i[31:0] $end
$var wire 32 * du_dat_o[31:0] $end
$var wire 5 4 execute_rfd_adr_o[4:0] $end
$var wire 5 5 fetch_rfa_adr_o[4:0] $end
$var wire 5 6 fetch_rfb_adr_o[4:0] $end
$var wire 32 7 ibus_adr_o[31:0] $end
$var wire 32 + ibus_dat_i[31:0] $end
$var wire 32 , mfspr_dat_o[31:0] $end
$scope module mor1kx_ctrl_cappuccino $end
$var wire 16 ; spr_esr[15:0] $end
$var wire 16 < spr_sr[15:0] $end
$var wire 16 = spr_sr_o[15:0] $end
$upscope $end
$scope module mor1kx_rf_cappuccino $end
$var wire 6 @ rf_wradr[5:0] $end
$var wire 32 ? spr_bus_dat_i[31:0] $end
$upscope $end
$var wire 32 $ pc_decode_to_execute[31:0] $end
$var wire 32 % pc_execute_to_ctrl[31:0] $end
$var wire 32 & pc_fetch_to_decode[31:0] $end
$var wire 32 8 snoop_adr_i[31:0] $end
$var wire 32 - spr_bus_dat_o[31:0] $end
$var wire 5 9 wb_rfd_adr_o[4:0] $end
$upscope $end
$upscope $end
$var wire 32 # monitor_execute_insn[31:0] $end
$scope module cappuccino $end
$scope module mor1kx_cpu $end
$scope module mor1kx_rf_cappuccino $end
$var wire 1 > spr_bus_we_i[0] $end
$upscope $end
$var wire 1 " rst[0] $end
$upscope $end
$upscope $end
$upscope $end
$upscope $end
$upscope $end
$upscope $end
$upscope $end
$enddefinitions $end
$dumpvars
#0
bx 9
b0 )
bx ,
b0 3
1"
bx ?
bx .
bx 0
b100000000 :
bx @
bx *
b0 2
bx +
b1000000000000001 <
b0 '
b1000000000000001 ;
bx 6
bx &
bx 5
b1000000000000001 =
0>
bx /
bx (
bx $
bx #
bx 7
bx 4
b100000000 %
bx -
b0 1
b0 8
#2
bx '
b0 0
b100000000 7
#4
b0 '
b0 +
#100
0"
#102
b0 6
b0 5
#106
b11000000000000000000000000000 +
b11000000000000000000000000000 '
#110
b100000000 &
#112
b0 +
b100000100 7
b0 '
b11000000000000000000000000000 #
b100000000 $
b0 4
#114
b11000000000000000000000000000 +
b10000000000000000000001000000 ,
b0 @
b0 /
b11000000000000000000000000000 '
#116
b0 9
b100000x000000001 <
b100000x000000001 =
#120
b0 '
b0 +
#122
b11000001000000000000000000000 +
b11000001000000000000000000000 '
#124
b10000000000000000000001000000 *
#126
b1 3
b100000100 &
#128
b0 '
b1 4
b0 +
b100000100 $
b100001000 7
b11000001000000000000000000000 #
#130
b0 ?
b11000001000000000000000000000 '
b100000100 :
b1 /
b11000001000000000000000000000 +
b100000100 %
b0 -
#132
b1 9
b1 @
#134
b0 @
#136
b0 '
b0 +
#138
b11000010000000000000000000000 +
b11000010000000000000000000000 '
#142
b10 3
b100001000 &
#144
b0 '
b10 4
b11000010000000000000000000000 #
b0 +
b100001100 7
b100001000 $
#146
b11000010000000000000000000000 '
b11000010000000000000000000000 +
b100001000 %
b10 /
b100001000 :
#148
b10 @
b10 9
#150
b0 @
#152
b0 +
b0 '
#154
b11000011000000000000000000000 '
b11000011000000000000000000000 +
#158
b11 3
b100001100 &
#160
b0 +
b100001100 $
b11 4
b0 '
b11000011000000000000000000000 #
b100010000 7
#162
b100001100 :
b11000011000000000000000000000 +
b11000011000000000000000000000 '
b100001100 %
b11 /
#164
b11 @
b11 9
#166
b0 @
#168
b0 '
b0 +
#170
b11000100000000000000000000000 +
b11000100000000000000000000000 '
#174
b100 3
b100010000 &
#176
b0 '
b100010000 $
b100010100 7
b0 +
b100 4
b11000100000000000000000000000 #
#178
b100010000 :
b11000100000000000000000000000 '
b11000100000000000000000000000 +
b100 /
b100010000 %
#180
b100 @
b100 9
#182
b0 @
#184
b0 '
b0 +
#186
b11000101000000000000000000000 +
b11000101000000000000000000000 '
#190
b101 3
b100010100 &
#192
b0 '
b100010100 $
b11000101000000000000000000000 #
b0 +
b100011000 7
b101 4
#194
b100010100 :
b11000101000000000000000000000 '
b11000101000000000000000000000 +
b101 /
b100010100 %
#196
b101 @
b101 9
#198
b0 @
#200
b0 +
b0 '
#202
b11000110000000000000000000000 '
b11000110000000000000000000000 +
#206
b110 3
b100011000 &
#208
b0 +
b100011000 $
b110 4
b0 '
b11000110000000000000000000000 #
b100011100 7
#210
b100011000 :
b11000110000000000000000000000 +
b11000110000000000000000000000 '
b100011000 %
b110 /
#212
b110 @
b110 9
#214
b0 @
#216
b0 +
b0 '
#218
b11000111000000000000000000000 '
b11000111000000000000000000000 +
#222
b111 3
b100011100 &
#224
b0 +
b100011100 $
b100100000 7
b0 '
b111 4
b11000111000000000000000000000 #
#226
b100011100 :
b11000111000000000000000000000 +
b11000111000000000000000000000 '
b100011100 %
b111 /
#228
b111 @
b111 9
#230
b0 @
#232
b0 '
b0 +
#234
b11001000000000000000000000000 +
b11001000000000000000000000000 '
#238
b1000 3
b100100000 &
#240
b0 '
b100100000 $
b11001000000000000000000000000 #
b0 +
b100100100 7
b1000 4
#242
b100100000 :
b11001000000000000000000000000 '
b11001000000000000000000000000 +
b1000 /
b100100000 %
#244
b1000 @
b1000 9
#246
b0 @
#248
b0 '
b0 +
#250
b11001001000000000000000000000 +
b11001001000000000000000000000 '
#254
b1001 3
b100100100 &
#256
b0 '
b100100100 $
b1001 4
b0 +
b11001001000000000000000000000 #
b100101000 7
#258
b100100100 :
b11001001000000000000000000000 '
b11001001000000000000000000000 +
b1001 /
b100100100 %
#260
b1001 @
b1001 9
#262
b0 @
#264
b0 +
b0 '
#266
b11001010000000000000000000000 '
b11001010000000000000000000000 +
#270
b1010 3
b100101000 &
#272
b0 +
b100101000 $
b100101100 7
b0 '
b1010 4
b11001010000000000000000000000 #
#274
b100101000 :
b11001010000000000000000000000 +
b11001010000000000000000000000 '
b100101000 %
b1010 /
#276
b1010 @
b1010 9
#278
b0 @
#280
b0 +
b0 '
#282
b11001011000000000000000000000 '
b11001011000000000000000000000 +
#286
b1011 3
b100101100 &
#288
b0 +
b100101100 $
b11001011000000000000000000000 #
b0 '
b100110000 7
b1011 4
#290
b100101100 :
b11001011000000000000000000000 +
b11001011000000000000000000000 '
b100101100 %
b1011 /
#292
b1011 @
b1011 9
#294
b0 @
#296
b0 '
b0 +
#298
b11001100000000000000000000000 +
b11001100000000000000000000000 '
#302
b1100 3
b100110000 &
#304
b0 '
b100110000 $
b1100 4
b0 +
b11001100000000000000000000000 #
b100110100 7
#306
b100110000 :
b11001100000000000000000000000 '
b11001100000000000000000000000 +
b1100 /
b100110000 %
#308
b1100 @
b1100 9
#310
b0 @
#312
b0 '
b0 +
#314
b11001101000000000000000000000 +
b11001101000000000000000000000 '
#318
b1101 3
b100110100 &
#320
b0 '
b100110100 $
b100111000 7
b0 +
b1101 4
b11001101000000000000000000000 #
#322
b100110100 :
b11001101000000000000000000000 '
b11001101000000000000000000000 +
b1101 /
b100110100 %
#324
b1101 @
b1101 9
#326
b0 @
#328
b0 +
b0 '
#330
b11001110000000000000000000000 '
b11001110000000000000000000000 +
#334
b1110 3
b100111000 &
#336
b0 +
b100111000 $
b11001110000000000000000000000 #
b0 '
b100111100 7
b1110 4
#338
b100111000 :
b11001110000000000000000000000 +
b11001110000000000000000000000 '
b100111000 %
b1110 /
#340
b1110 @
b1110 9
#342
b0 @
#344
b0 +
b0 '
#346
b11001111000000000000000000000 '
b11001111000000000000000000000 +
#350
b1111 3
b100111100 &
#352
b0 +
b100111100 $
b1111 4
b0 '
b11001111000000000000000000000 #
b101000000 7
#354
b100111100 :
b11001111000000000000000000000 +
b11001111000000000000000000000 '
b100111100 %
b1111 /
#356
b1111 @
b1111 9
#358
b0 @
#360
b0 '
b0 +
#362
b11010000000000000000000000000 +
b11010000000000000000000000000 '
#366
b10000 3
b101000000 &
#368
b0 '
b101000000 $
b101000100 7
b0 +
b10000 4
b11010000000000000000000000000 #
#370
b101000000 :
b11010000000000000000000000000 '
b11010000000000000000000000000 +
b10000 /
b101000000 %
#372
b10000 @
b10000 9
#374
b0 @
#376
b0 '
b0 +
#378
b11010001000000000000000000000 +
b11010001000000000000000000000 '
#382
b10001 3
b101000100 &
#384
b0 '
b101000100 $
b11010001000000000000000000000 #
b0 +
b101001000 7
b10001 4
#386
b101000100 :
b11010001000000000000000000000 '
b11010001000000000000000000000 +
b10001 /
b101000100 %
#388
b10001 @
b10001 9
#390
b0 @
#392
b0 +
b0 '
#394
b11010010000000000000000000000 '
b11010010000000000000000000000 +
#398
b10010 3
b101001000 &
#400
b0 +
b101001000 $
b10010 4
b0 '
b11010010000000000000000000000 #
b101001100 7
#402
b101001000 :
b11010010000000000000000000000 +
b11010010000000000000000000000 '
b101001000 %
b10010 /
#404
b10010 @
b10010 9
#406
b0 @
#408
b0 +
b0 '
#410
b11010011000000000000000000000 '
b11010011000000000000000000000 +
#414
b10011 3
b101001100 &
#416
b0 +
b101001100 $
b101010000 7
b0 '
b10011 4
b11010011000000000000000000000 #
#418
b101001100 :
b11010011000000000000000000000 +
b11010011000000000000000000000 '
b101001100 %
b10011 /
#420
b10011 @
b10011 9
#422
b0 @
#424
b0 '
b0 +
#426
b11010100000000000000000000000 +
b11010100000000000000000000000 '
#430
b10100 3
b101010000 &
#432
b0 '
b101010000 $
b11010100000000000000000000000 #
b0 +
b101010100 7
b10100 4
#434
b101010000 :
b11010100000000000000000000000 '
b11010100000000000000000000000 +
b10100 /
b101010000 %
#436
b10100 @
b10100 9
#438
b0 @
#440
b0 '
b0 +
#442
b11010101000000000000000000000 +
b11010101000000000000000000000 '
#446
b10101 3
b101010100 &
#448
b0 '
b101010100 $
b10101 4
b0 +
b11010101000000000000000000000 #
b101011000 7
#450
b101010100 :
b11010101000000000000000000000 '
b11010101000000000000000000000 +
b10101 /
b101010100 %
#452
b10101 @
b10101 9
#454
b0 @
#456
b0 +
b0 '
#458
b11010110000000000000000000000 '
b11010110000000000000000000000 +
#462
b10110 3
b101011000 &
#464
b0 +
b101011000 $
b101011100 7
b0 '
b10110 4
b11010110000000000000000000000 #
#466
b101011000 :
b11010110000000000000000000000 +
b11010110000000000000000000000 '
b101011000 %
b10110 /
#468
b10110 @
b10110 9
#470
b0 @
#472
b0 +
b0 '
#474
b11010111000000000000000000000 '
b11010111000000000000000000000 +
#478
b10111 3
b101011100 &
#480
b0 +
b101011100 $
b11010111000000000000000000000 #
b0 '
b101100000 7
b10111 4
#482
b101011100 :
b11010111000000000000000000000 +
b11010111000000000000000000000 '
b101011100 %
b10111 /
#484
b10111 @
b10111 9
#486
b0 @
#488
b0 '
b0 +
#490
b11011000000000000000000000000 +
b11011000000000000000000000000 '
#494
b11000 3
b101100000 &
#496
b0 '
b101100000 $
b11000 4
b0 +
b11011000000000000000000000000 #
b101100100 7
#498
b101100000 :
b11011000000000000000000000000 '
b11011000000000000000000000000 +
b11000 /
b101100000 %
#500
b11000 @
b11000 9
#502
b0 @
#504
b0 '
b0 +
#506
b11011001000000000000000000000 +
b11011001000000000000000000000 '
#510
b11001 3
b101100100 &
#512
b0 '
b101100100 $
b101101000 7
b0 +
b11001 4
b11011001000000000000000000000 #
#514
b101100100 :
b11011001000000000000000000000 '
b11011001000000000000000000000 +
b11001 /
b101100100 %
#516
b11001 @
b11001 9
#518
b0 @
#520
b0 +
b0 '
#522
b11011010000000000000000000000 '
b11011010000000000000000000000 +
#526
b11010 3
b101101000 &
#528
b0 +
b101101000 $
b11011010000000000000000000000 #
b0 '
b101101100 7
b11010 4
#530
b101101000 :
b11011010000000000000000000000 +
b11011010000000000000000000000 '
b101101000 %
b11010 /
#532
b11010 @
b11010 9
#534
b0 @
#536
b0 +
b0 '
#538
b11011011000000000000000000000 '
b11011011000000000000000000000 +
#542
b11011 3
b101101100 &
#544
b0 +
b101101100 $
b11011 4
b0 '
b11011011000000000000000000000 #
b101110000 7
#546
b101101100 :
b11011011000000000000000000000 +
b11011011000000000000000000000 '
b101101100 %
b11011 /
#548
b11011 @
b11011 9
#550
b0 @
#552
b0 '
b0 +
#554
b11011100000000000000000000000 +
b11011100000000000000000000000 '
#558
b11100 3
b101110000 &
#560
b0 '
b101110000 $
b101110100 7
b0 +
b11100 4
b11011100000000000000000000000 #
#562
b101110000 :
b11011100000000000000000000000 '
b11011100000000000000000000000 +
b11100 /
b101110000 %
#564
b11100 @
b11100 9
#566
b0 @
#568
b0 '
b0 +
#570
b11011101000000000000000000000 +
b11011101000000000000000000000 '
#574
b11101 3
b101110100 &
#576
b0 '
b101110100 $
b11011101000000000000000000000 #
b0 +
b101111000 7
b11101 4
#578
b101110100 :
b11011101000000000000000000000 '
b11011101000000000000000000000 +
b11101 /
b101110100 %
#580
b11101 @
b11101 9
#582
b0 @
#584
b0 +
b0 '
#586
b11011110000000000000000000000 '
b11011110000000000000000000000 +
#590
b11110 3
b101111000 &
#592
b0 +
b101111000 $
b11110 4
b0 '
b11011110000000000000000000000 #
b101111100 7
#594
b101111000 :
b11011110000000000000000000000 +
b11011110000000000000000000000 '
b101111000 %
b11110 /
#596
b11110 @
b11110 9
#598
b0 @
#600
b0 +
b0 '
#602
b11011111000000000000000000000 '
b11011111000000000000000000000 +
#606
b11111 3
b101111100 &
#608
b0 +
b101111100 $
b110000000 7
b0 '
b11111 4
b11011111000000000000000000000 #
#610
b101111100 :
b11011111000000000000000000000 +
b11011111000000000000000000000 '
b101111100 %
b11111 /
#612
b11111 @
b11111 9
#614
b0 @
#616
b0 '
b0 +
#618
b10101000001000000000000000000001 +
b10101000001000000000000000000001 '
#622
b1 3
b110000000 &
#624
b0 '
b110000000 $
b10101000001000000000000000000001 #
b0 +
b110000100 7
b1 4
#626
b110000000 :
b10101011111 ,
b10101000001000000000000000000001 '
b10101000001000000000000000000001 +
b1 /
b1 @
b110000000 %
#628
b0x00000000000000000x0x010xxxxx *
b1 9
#632
b0 '
b0 +
#634
b11000000000000000000100000010001 +
b11000000000000000000100000010001 '
#636
b1 6
b10101011111 *
#638
b0 3
b110000100 &
b1 2
#640
b0 4
b110000100 $
b0 +
b11000000000000000000100000010001 #
b0 '
b110001000 7
#642
b110000100 %
b110000100 :
b1 ?
b1 -
b100000x000000001 ,
b11000000000000000000100000010001 '
b0 6
b11000000000000000000100000010001 +
b0 /
b10001 @
#644
b0x0000xxx0x0xxxx1 *
b1000000000000001 =
b1000000000000001 ,
b1000000000000001 <
b1 6
b0 9
#646
b0x0000x0x0x0xxxx1 *
#648
b0 +
b0 '
#650
b11000001010000000000000000000000 '
b11000001010000000000000000000000 +
b0 6
#652
b100000x000000001 *
#654
b1000000000000001 *
b0 2
b110001000 &
b1010 3
#656
b1010 4
b110001100 7
b110001000 $
b0 +
b11000001010000000000000000000000 #
b0 '
#658
b11000001010000000000000000000000 '
b0 -
b110001000 %
b0 @
b0 ?
b110001000 :
b1010 /
b11000001010000000000000000000000 +
b0 ,
#660
b0x00000000000000x *
b1010 9
#664
b0 '
b0 +
#666
b11000100000000000000000000000 +
b11000100000000000000000000000 '
#668
b0 *
#670
b110001100 &
b100 3
#672
b0 '
b100 4
b0 +
b11000100000000000000000000000 #
b110010000 7
b110001100 $
#674
b11000100000000000000000000000 '
b10000000000000000000001000000 ,
b110001100 %
b100 /
b11000100000000000000000000000 +
b110001100 :
#676
b100 9
b100 @
b0x000000000000000000000x000000 *
#678
b0 @
#680
b0 '
b0 +
#682
b10101000100001000010000000110000 +
b10101000100001000010000000110000 '
#684
b100 5
b10000000000000000000001000000 *
b100 6
#686
b110010000 &
b100 2
b100 1
#688
b110010000 $
b0 '
b0 +
b10101000100001000010000000110000 #
b110010100 7
#690
b0 5
b110000 @
b0 6
bx ,
b110010000 :
b10101000100001000010000000110000 +
b10101000100001000010000000110000 '
b110010000 %
#692
b100 6
b100 5
b100 @
bx *
#694
b110000 @
#696
b0 '
b0 +
#698
b1000100000000000010000000000000 +
b0 5
b0 6
b1000100000000000010000000000000 '
#700
b100 6
#702
b110010100 &
b0 3
b0 1
#704
b110010100 $
b0 +
b0 '
b0 4
b1000100000000000010000000000000 #
#706
b110011000 7
b10000000110000 ?
b10000000110000 -
b1000100000000000010000000000000 +
b1000100000000000010000000000000 '
b0 /
#708
b0 9
b110010100 %
b110010100 :
#712
b0 '
b0 +
#714
b10101000000000000000000000000 +
b0 6
b10101000000000000000000000000 '
#718
b1000 3
b110011000 &
b0 2
#720
b0 +
b10101000000000000000000000000 #
b110011000 $
b0 '
b10000000110000 7
b1000 4
#722
b10101000000000000000000000000 '
b10101000000000000000000000000 +
b1000 /
b10000000000000000000001000000 ,
b0 ?
b0 -
b110011000 %
b0 @
#724
b1000 9
#728
b0 '
b0 +
#730
b100000000000000111111101100 +
b100000000000000111111101100 '
#732
b1 6
b10000000000000000000001000000 *
#734
b1001 3
b1 2
b10000000110000 &
#736
b1001 4
b0 +
b100000000000000111111101100 #
b10000000110000 $
b0 '
b10000000110100 7
#738
bx ,
b100000000000000111111101100 +
b1001 /
b111000 @
b100000000000000111111101100 '
b0 6
b10000000110000 %
b1 -
b10000000110000 :
b1 ?
#740
bx *
b1001 9
b1001 @
b1 6
#742
b111000 @
#744
b0 +
b0 '
#746
b10101000000000000000000000000 '
b10101000000000000000000000000 +
b0 6
#750
b10000000110100 &
b1000 3
b0 2
#752
b10101000000000000000000000000 #
b1000 4
b101111111100000 7
b0 '
b0 +
b10000000110100 $
#754
b1000 /
b0 @
b0 ?
b10000000000000000000001000000 ,
b10101000000000000000000000000 +
b10101000000000000000000000000 '
b0 -
b10000000110100 %
#756
b1000 9
#760
b0 '
b0 +
#762
b10110100011000000000000000000001 +
b10110100011000000000000000000001 '
#764
b10000000000000000000001000000 *
#766
b101111111100000 &
b11 3
#768
b0 '
b101111111100000 $
b11 4
b10110100011000000000000000000001 #
b0 +
b101111111100100 7
#770
b10110100011000000000000000000001 '
b1 @
b11 /
b10110100011000000000000000000001 +
b101111111100000 :
b10101011111 ,
b101111111100000 %
#772
b11 @
b0x00000000000000000x0x010xxxxx *
b11 9
#774
b1 @
#776
b0 '
b0 +
#778
b10100100100000110000000000000100 +
b10100100100000110000000000000100 '
#780
b11 5
b10101011111 *
#782
b100 3
b11 1
b101111111100100 &
#784
b0 '
b100 4
b101111111100100 $
b0 +
b10100100100000110000000000000100 #
#786
b101 @
b10100100100000110000000000000100 '
b101111111101000 7
b10100100100000110000000000000100 +
b100 /
b10010011000001 ,
#788
b0xxx000000011000 ,
b101111111100100 %
b100 @
b0x0010xx10xxxx1 *
b100 9
b101111111100100 :
#790
b0xxx0x0x0x011xxx *
#792
b0 '
b0 +
#794
b11100100000001000000000000000000 +
b11100100000001000000000000000000 '
b0 5
#796
b100 5
b0xxx0x00xx0xx00x *
#798
b0xxx000000011000 *
b0 3
b101111111101000 &
b100 1
#800
b0 4
b11100100000001000000000000000000 #
b0 +
b101111111101100 7
b0 '
b101111111101000 $
#802
b101111111101000 :
b0 5
b101111111101000 %
b11100100000001000000000000000000 '
b0 /
b11100100000001000000000000000000 +
#804
b100 5
b0 9
#808
b0 +
b0 '
#810
b10000000000000000000000100001 '
b10000000000000000000000100001 +
b0 5
#814
b0 1
b101111111101100 &
#816
b101111111101100 $
b0 +
b10000000000000000000000100001 #
b0 '
b101111111110000 7
#818
b10000000000000000000001000000 ,
b101111111101100 :
b0 @
b10000000000000000000000100001 '
b10000000000000000000000100001 +
b101111111101100 %
#820
b0x0000000000000xxx00000x0xx000 *
#824
b0 +
b0 '
#826
b10101000000000000000000000000 '
b10101000000000000000000000000 +
#828
b10000000000000000000001000000 *
#830
b1000 3
b101111111110000 &
#832
b1000 4
b101111111110100 7
b0 +
b101111111110000 $
b0 '
b10101000000000000000000000000 #
#834
b101111111110000 %
b10101000000000000000000000000 '
b10101000000000000000000000000 +
b1000 /
#836
b1000 9
#840
b0 +
b0 '
#842
b10110100110000000000000000010001 '
b10110100110000000000000000010001 +
#846
b110 3
b101111111110100 &
#848
b110 4
b0 +
b10110100110000000000000000010001 #
b0 '
b101111111111000 7
b101111111110100 $
#850
b10110100110000000000000000010001 +
b101111111110100 :
b110 /
b1000000000000001 ,
b10110100110000000000000000010001 '
b101111111110100 %
b10001 @
#852
b110 @
b0x000000000000x00000000x00000x *
b110 9
#854
b10001 @
#856
b0 +
b0 '
#858
b10011100101000001111111111111111 '
b10011100101000001111111111111111 +
#860
b11111 6
b1000000000000001 *
#862
b101 3
b101111111111000 &
b11111 2
#864
b0 +
b101111111111000 $
b101 4
b10011100101000001111111111111111 #
b0 '
b101111111111100 7
#866
b111111 @
b10011100101000001111111111111111 +
b101 /
b101111111111000 :
b10011100101000001111111111111111 '
b0 6
b101111111111000 %
b0 ,
#868
b101 9
b0x00000000000000x *
b101 @
b11111 6
#870
b111111 @
#872
b0 +
b0 '
#874
b10101100101001010000000000010000 '
b10101100101001010000000000010000 +
b0 6
#876
b101 5
b0 *
#878
b0 2
b101111111111100 &
b101 1
#880
b101111111111100 $
b110000000000000 7
b0 +
b0 '
b10101100101001010000000000010000 #
#882
b101111 @
b0 5
b10101100101001010000000000010000 '
b101111111111100 :
b10101100101001010000000000010000 +
b101111111111100 %
#884
b101 @
b101 5
#886
b101111 @
#888
b0 +
b0 '
#890
b11100000101001100010100000000011 '
b11100000101001100010100000000011 +
b0 5
#892
b110 5
b101 6
#894
b101 2
b110 1
b110000000000000 &
#896
b11100000101001100010100000000011 #
b110000000000000 $
b0 +
b0 '
b110000000000100 7
#898
b0 5
b0 6
b110000000000000 %
b11111111111111111111111111101111 ?
b11100000101001100010100000000011 '
b11100000101001100010100000000011 +
b1 @
b110000000000000 :
b11111111111111111111111111101111 -
#900
b101 6
b110 5
b101 @
#902
b1 @
#904
b0 +
b0 '
#906
b11000000000000000010100000010001 '
b0 6
b11000000000000000010100000010001 +
b0 5
#908
b101 6
#910
b110000000000100 &
b0 3
b0 1
#912
b0 '
b11000000000000000010100000010001 #
b110000000001000 7
b110000000000100 $
b0 +
b0 4
#914
b0 /
b11000000000000000010100000010001 '
b0 6
b110000000000100 %
b1000000000000001 -
b1000000000000001 ,
b11000000000000000010100000010001 +
b1000000000000001 ?
b10001 @
b110000000000100 :
#916
b0x00000000000000x *
b0 9
b101 6
#920
b0 '
b0 +
#922
b10110100011000000000000000000110 +
b0 6
b10110100011000000000000000000110 '
#924
b1000000000000001 *
#926
b110000000001000 &
b0 2
b11 3
#928
b10110100011000000000000000000110 #
b0 '
b0 +
b11 4
b110000000001000 $
b110000000001100 7
#930
b10110100011000000000000000000110 +
b0 -
b10110100011000000000000000000110 '
b11 /
b110000000001000 %
b110000000001000 :
b110 @
b0 ?
b10011000001 ,
#932
b0x0000x00xx000001 *
b11 9
b11 @
#934
b110 @
#936
b0 +
b0 '
#938
b10100100100000110000000010000000 '
b10100100100000110000000010000000 +
#940
b10011000001 *
b11 5
#942
b100 3
b110000000001100 &
b11 1
#944
b0 +
b0 '
b10100100100000110000000010000000 #
b100 4
b110000000001100 $
#946
b10100100100000110000000010000000 '
b110000000010000 7
b10100100100000110000000010000000 +
b0 ,
b100 /
#948
bx ,
b110000000001100 %
b0 @
b100 9
b0x00xx00000x *
b110000000001100 :
#950
bx *
b100 @
#952
b0 @
b0 '
b0 +
#954
b10111000111001000000000001000111 +
b10111000111001000000000001000111 '
b0 5
#956
b100 5
#958
b110000000010000 &
b111 3
b100 1
#960
b0 +
b110000000010000 $
b0 '
b110000000010100 7
b111 4
b10111000111001000000000001000111 #
#962
b10111000111001000000000001000111 '
b10111000111001000000000001000111 +
b0 5
b111 /
b1 @
b10101011111 ,
b110000000010000 %
b110000000010000 :
#964
b111 @
b100 5
b111 9
#966
b1 @
#968
b0 +
b0 '
#970
b10101001000000000000000000010000 '
b10101001000000000000000000010000 +
b0 5
#972
b10101011111 *
#974
b1000 3
b0 1
b110000000010100 &
#976
b10101001000000000000000000010000 #
b0 '
b110000000010100 $
b0 +
b1000 4
b110000000011000 7
#978
b10101001000000000000000000010000 '
b10000 @
b110000000010100 ,
b110000000010100 :
b1000 /
b10101001000000000000000000010000 +
b110000000010100 %
#980
b0xx00x0x0x01x1xx *
b1000 9
b1000 @
#982
b10000 @
#984
b0 '
b0 +
#986
b11100001110010000011100000001000 +
b11100001110010000011100000001000 '
#988
b110000000010100 *
b1000 5
b111 6
#990
b110000000011000 &
b1000 1
b1110 3
b111 2
#992
b110000000011100 7
b0 '
b11100001110010000011100000001000 #
b0 +
b1110 4
b110000000011000 $
#994
b11100001110010000011100000001000 '
b0 6
b110000000011000 %
b110000000011000 :
b100000 @
b1 -
bx ,
b11100001110010000011100000001000 +
b1110 /
b1 ?
b0 5
#996
b1000 5
b111 6
b1110 @
b1110 9
bx *
#998
b100000 @
#1000
b0 '
b0 +
#1002
b10100100100000110000000001111000 +
b0 6
b0 5
b10100100100000110000000001111000 '
#1004
b11 5
#1006
b0 2
b11 1
b110000000011100 &
b100 3
#1008
b110000000011100 $
b0 +
b110000000100000 7
b0 '
b100 4
b10100100100000110000000001111000 #
#1010
b10100100100000110000000001111000 +
b0 5
b0 -
b110000000011100 %
b0 @
b110000000011100 :
b0 ?
b10100100100000110000000001111000 '
b1000000000000001 ,
b100 /
#1012
b100 @
b11 5
b100 9
#1014
b0 @
#1016
b0 +
b0 '
#1018
b10111000111001000000000001000011 '
b10111000111001000000000001000011 +
b0 5
#1020
b100 5
b1000000000000001 *
#1022
b100 1
b111 3
b110000000100000 &
#1024
b10111000111001000000000001000011 #
b110000000100000 $
b0 +
b111 4
b0 '
b110000000100100 7
#1026
b1000 @
b0 5
b111 /
b110000000100000 %
b10111000111001000000000001000011 '
b0 ,
b110000000100000 :
b10111000111001000000000001000011 +
#1028
b111 9
b100 5
b0x00000000000000x *
b111 @
#1030
b1000 @
#1032
b0 +
b0 '
#1034
b10101001000000000000000000000001 '
b0 5
b10101001000000000000000000000001 +
#1036
b0 *
#1038
b0 1
b110000000100100 &
b1000 3
#1040
b0 +
b110000000101000 7
b10101001000000000000000000000001 #
b0 '
b110000000100100 $
b1000 4
#1042
b10101001000000000000000000000001 +
b1000 /
b1 @
b10101001000000000000000000000001 '
b110000000100100 :
b110000000100100 %
b10101011111 ,
#1044
b0x0x0x0xxxxx *
b1000 9
b1000 @
#1046
b1 @
#1048
b0 +
b0 '
#1050
b11100001101010000011100000001000 '
b11100001101010000011100000001000 +
#1052
b111 6
b10101011111 *
b1000 5
#1054
b1000 1
b1101 3
b111 2
b110000000101000 &
#1056
b11100001101010000011100000001000 #
b1101 4
b0 +
b110000000101100 7
b0 '
b110000000101000 $
#1058
b11100001101010000011100000001000 +
b0 5
b0 @
b0 6
b0 ,
b1101 /
b1000 -
b11100001101010000011100000001000 '
b110000000101000 :
b110000000101000 %
b1000 ?
#1060
b1000 5
b111 6
b1101 @
b0x0x0x0xxxxx *
b1101 9
#1062
b0 @
#1064
b0 +
b0 '
#1066
b10011100110000000000000000000000 '
b0 6
b0 5
b10011100110000000000000000000000 +
#1068
b0 *
#1070
b110000000101100 &
b110 3
b0 1
b0 2
#1072
b110000000101100 $
b0 '
b110 4
b10011100110000000000000000000000 #
b0 +
b110000000110000 7
#1074
b110 /
b10011100110000000000000000000000 '
b0 ?
b10000000000000000000001000000 ,
b10011100110000000000000000000000 +
b110000000101100 %
b110000000101100 :
b0 -
#1076
b0x000000000000000000000x000000 *
b110 @
b110 9
#1078
b0 @
#1080
b0 '
b0 +
#1082
b11100000101011100011100000001000 +
b11100000101011100011100000001000 '
#1084
b111 6
b10000000000000000000001000000 *
b1110 5
#1086
b101 3
b110000000110000 &
b111 2
b1110 1
#1088
b101 4
b110000000110000 $
b0 '
b110000000110100 7
b0 +
b11100000101011100011100000001000 #
#1090
b11100000101011100011100000001000 '
b0 6
b1000 ?
b1000 -
b0 5
b101 /
b11100000101011100011100000001000 +
bx ,
b110000000110000 :
b110000000110000 %
#1092
b1110 5
b111 6
b101 @
bx *
b101 9
#1094
b0 @
#1096
b0 '
b0 +
#1098
b11000000100000000011000000000010 +
b0 6
b0 5
b11000000100000000011000000000010 '
#1100
b110 6
#1102
b110000000110100 &
b0 1
b100 3
b110 2
#1104
b0 '
b0 +
b11000000100000000011000000000010 #
b110000000110100 $
b100 4
b110000000111000 7
#1106
b11000000100000000011000000000010 '
b10 @
b110000000110100 %
b0 6
b0 -
b11000000100000000011000000000010 +
b0 ?
b110000000110100 :
b100 /
1>
#1108
b110 6
b100 9
#1112
b0 '
b0 +
#1114
b11100100001001100010100000000000 +
b11100100001001100010100000000000 '
b0 6
#1116
b101 6
b110 5
#1118
b101 2
b110 1
b110000000111000 &
b1 3
#1120
b0 +
b110000000111100 7
b110000000111000 $
b11100100001001100010100000000000 #
b1 4
b0 '
#1122
b11100100001001100010100000000000 '
b11100100001001100010100000000000 +
b0 5
0>
b0 @
b10000000000000 -
b110000000111000 %
b110000000111000 :
b10000000000000 ?
b0 6
b0 ,
b1 /
#1124
b1 9
b110 5
b1000001000000001 =
b101 6
b1000001000000001 <
#1128
b0 +
b0 '
