trace_proc.vcd
$date
	Thu Sep 27 10:41:38 2018
$end
$version
	GTKWave Analyzer v3.3.86 (w)1999-2017 BSI
$end
$timescale
	1s
$end
$scope module orpsoc_coherent_tb $end
$scope module dut $end
$scope module gen_cores[0] $end
$scope module mor1kx0 $end
$scope module mor1kx_cpu $end
$scope module cappuccino $end
$scope module mor1kx_cpu $end
$var wire 32 : ctrl_epcr_o[31:0] $end
$var wire 32 . ctrl_lsu_adr_o[31:0] $end
$var wire 5 / ctrl_rfd_adr_o[4:0] $end
$var wire 32 0 dbus_adr_o[31:0] $end
$var wire 32 ' dbus_dat_i[31:0] $end
$var wire 32 ( dbus_dat_o[31:0] $end
$var wire 5 1 decode_rfa_adr_o[4:0] $end
$var wire 5 2 decode_rfb_adr_o[4:0] $end
$var wire 5 3 decode_rfd_adr_o[4:0] $end
$var wire 32 ) du_dat_i[31:0] $end
$var wire 32 * du_dat_o[31:0] $end
$var wire 5 4 execute_rfd_adr_o[4:0] $end
$var wire 5 5 fetch_rfa_adr_o[4:0] $end
$var wire 5 6 fetch_rfb_adr_o[4:0] $end
$var wire 32 7 ibus_adr_o[31:0] $end
$var wire 32 + ibus_dat_i[31:0] $end
$var wire 32 , mfspr_dat_o[31:0] $end
$scope module mor1kx_ctrl_cappuccino $end
$var wire 16 ; spr_esr[15:0] $end
$var wire 16 < spr_sr[15:0] $end
$var wire 16 = spr_sr_o[15:0] $end
$upscope $end
$scope module mor1kx_rf_cappuccino $end
$var wire 6 @ rf_wradr[5:0] $end
$var wire 32 ? spr_bus_dat_i[31:0] $end
$upscope $end
$var wire 32 $ pc_decode_to_execute[31:0] $end
$var wire 32 % pc_execute_to_ctrl[31:0] $end
$var wire 32 & pc_fetch_to_decode[31:0] $end
$var wire 32 8 snoop_adr_i[31:0] $end
$var wire 32 - spr_bus_dat_o[31:0] $end
$var wire 5 9 wb_rfd_adr_o[4:0] $end
$upscope $end
$upscope $end
$var wire 32 # monitor_execute_insn[31:0] $end
$scope module cappuccino $end
$scope module mor1kx_cpu $end
$scope module mor1kx_rf_cappuccino $end
$var wire 1 > spr_bus_we_i[0] $end
$upscope $end
$var wire 1 " rst[0] $end
$upscope $end
$upscope $end
$upscope $end
$upscope $end
$upscope $end
$upscope $end
$upscope $end
$enddefinitions $end
$dumpvars
#0
bx 9
b0 )
bx ,
b0 3
1"
bx ?
bx .
bx 0
b100000000 :
bx @
bx *
b0 2
bx +
b1000000000000001 <
b0 '
b1000000000000001 ;
bx 6
bx &
bx 5
b1000000000000001 =
0>
bx /
bx (
bx $
bx #
bx 7
bx 4
b100000000 %
bx -
b0 1
b0 8
#2
bx '
b0 0
b100000000 7
#4
b0 '
b0 +
#100
0"
#102
b0 6
b0 5
#106
b11001111000001100000000100001 +
b11001111000001100000000100001 '
#108
b11000 6
#110
b1111 3
b11000 2
b100000000 &
#112
b0 +
b100000100 7
b0 '
b11001111000001100000000100001 #
b100000000 $
b1111 4
#114
b11001111000001100000000100001 +
b10000000000000000000001000000 ,
b0 @
b0 6
b1111 /
b11001111000001100000000100001 '
#116
b1111 @
b1111 9
b100000x000000001 <
b100000x000000001 =
b11000 6
#118
b0 @
#120
b0 '
b0 +
#122
b10101001111011111010000000000000 +
b10101001111011111010000000000000 '
b0 6
#124
b10100 6
b1111 5
b10000000000000000000001000000 *
#126
b100000100 &
b10100 2
b1111 1
#128
b0 '
b0 +
b100000100 $
b100001000 7
b10101001111011111010000000000000 #
#130
b10101001111011111010000000000000 '
b0 5
b0 6
b0 ,
b100000100 :
b10101001111011111010000000000000 +
b100000100 %
#132
b0x000000000000000000000x000000 *
b10100 6
b1111 5
b1111 @
#134
b0 @
#136
b0 '
b0 +
#138
b11001101000000100000000000000 +
b0 5
b0 6
b11001101000000100000000000000 '
#140
b0 *
b1000 6
#142
b1101 3
b0 1
b1000 2
b100001000 &
#144
b1101 4
b0 '
b11001101000000100000000000000 #
b0 +
b100001100 7
b100001000 $
#146
b0 6
b10000000000000000000001000000 ,
b11001101000000100000000000000 '
b100001000 %
b1101 /
b11001101000000100000000000000 +
b100001000 :
#148
b1000 6
b1101 @
b1101 9
b0x000000000000000000000x000000 *
#150
b0 @
#152
b0 '
b0 +
#154
b11100001101011010111100000000000 +
b0 6
b11100001101011010111100000000000 '
#156
b10000000000000000000001000000 *
b1101 5
b1111 6
#158
b100001100 &
b1111 2
b1101 1
#160
b100001100 $
b11100001101011010111100000000000 #
b0 '
b0 +
b100010000 7
#162
b11100001101011010111100000000000 '
b0 6
b11000000001000011010000000000000 ?
b0 ,
b100001100 :
b11100001101011010111100000000000 +
b100001100 %
b0 5
b11000000001000011010000000000000 -
#164
b0x000000000000000000000x000000 *
b1101 @
b1111 6
b1101 5
b100001x000000001 =
b100001x000000001 <
#166
b0 @
#168
b0 '
b0 +
#170
b1000100000000000110100000000000 +
b1000100000000000110100000000000 '
b0 6
b0 5
#172
b0 *
b1101 6
#174
b0 1
b0 3
b1101 2
b100010000 &
#176
b100010000 $
b1000100000000000110100000000000 #
b0 4
b0 +
b0 '
#178
b1000100000000000110100000000000 '
b100010100 7
b1000011010000000000000 ?
bx @
b1000011010000000000000 -
b1000100000000000110100000000000 +
b0 /
#180
b0 9
b100010000 %
b100010000 :
#184
b0 '
b0 +
#186
b10101000000000000000000000000 +
b0 6
b10101000000000000000000000000 '
#190
b100010100 &
b0 2
b1000 3
#192
b0 '
b10101000000000000000000000000 #
b0 +
b100010100 $
b1000011010000000000000 7
b1000 4
#194
b10101000000000000000000000000 +
b10101000000000000000000000000 '
bx ?
b100010100 %
bx -
b1000 /
#196
b1000 9
#200
b0 '
b0 +
#202
b11100011001000000001100000000100 +
b11100011001000000001100000000100 '
#204
b11 6
#206
b11001 3
b11 2
b1000011010000000000000 &
#208
b0 +
b11001 4
b1000011010000000000000 $
b11100011001000000001100000000100 #
b1000011010000000000100 7
b0 '
#210
b11100011001000000001100000000100 '
b0 6
b1000011010000000000000 :
b11100011001000000001100000000100 +
b11001 /
b1000011010000000000000 %
#212
b11 6
b11001 9
b11001 @
#214
bx @
#216
b0 '
b0 +
#218
b10101000011000000000000000000001 +
b0 6
b10101000011000000000000000000001 '
#222
b1000011010000000000100 &
b0 2
b11 3
#224
b0 '
b1000011010000000000100 $
b0 +
b11 4
b1000011010000000001000 7
b10101000011000000000000000000001 #
#226
b10101000011000000000000000000001 +
b1000011010000000000100 :
b10101000011000000000000000000001 '
b1000011010000000000100 %
b11 /
#228
b11 9
b11 @
#230
bx @
#232
b0 '
b0 +
#234
b11000000000000000001100000010001 +
b11000000000000000001100000010001 '
#236
b11 6
#238
b0 3
b11 2
b1000011010000000001000 &
#240
b0 +
b1000011010000000001000 $
b11000000000000000001100000010001 #
b0 '
b1000011010000000001100 7
b0 4
#242
b0 6
b11000000000000000001100000010001 +
b1000011010000000001000 :
b0 /
b1000011010000000001000 %
b11000000000000000001100000010001 '
#244
b0 9
b11 6
#248
b0 '
b0 +
#250
b11100000001000000000000000000100 +
b11100000001000000000000000000100 '
b0 6
#254
b1000011010000000001100 &
b0 2
b1 3
#256
b1000011010000000001100 $
b0 '
b1 4
b0 +
b1000011010000000010000 7
b11100000001000000000000000000100 #
#258
b1000011010000000001100 :
b11100000001000000000000000000100 '
b1000011010000000001100 %
b11100000001000000000000000000100 +
b1 /
#260
b1 @
b1 9
#262
bx @
#264
b0 +
b0 '
#266
b11100000010000000000000000000100 '
b11100000010000000000000000000100 +
#270
b10 3
b1000011010000000010000 &
#272
b0 +
b10 4
b11100000010000000000000000000100 #
b1000011010000000010000 $
b1000011010000000010100 7
b0 '
#274
b11100000010000000000000000000100 '
b10 /
b11100000010000000000000000000100 +
b1000011010000000010000 :
b1000011010000000010000 %
#276
b10 9
b10 @
#278
bx @
#280
b0 +
b0 '
#282
b11100000011000000000000000000100 '
b11100000011000000000000000000100 +
#286
b1000011010000000010100 &
b11 3
#288
b0 +
b0 '
b11 4
b11100000011000000000000000000100 #
b1000011010000000010100 $
b1000011010000000011000 7
#290
b11100000011000000000000000000100 '
b11 /
b11100000011000000000000000000100 +
b1000011010000000010100 %
b1000011010000000010100 :
#292
b11 @
b11 9
#294
bx @
#296
b0 +
b0 '
#298
b11100000100000000000000000000100 '
b11100000100000000000000000000100 +
#302
b100 3
b1000011010000000011000 &
#304
b0 +
b0 '
b100 4
b1000011010000000011100 7
b11100000100000000000000000000100 #
b1000011010000000011000 $
#306
b11100000100000000000000000000100 '
b100 /
b11100000100000000000000000000100 +
b1000011010000000011000 :
b1000011010000000011000 %
#308
b100 @
b100 9
#310
bx @
#312
b0 +
b0 '
#314
b11100000101000000000000000000100 '
b11100000101000000000000000000100 +
#318
b1000011010000000011100 &
b101 3
#320
b0 +
b0 '
b101 4
b1000011010000000011100 $
b11100000101000000000000000000100 #
b1000011010000000100000 7
#322
b11100000101000000000000000000100 '
b101 /
b11100000101000000000000000000100 +
b1000011010000000011100 %
b1000011010000000011100 :
#324
b101 @
b101 9
#326
bx @
#328
b0 +
b0 '
#330
b11100000110000000000000000000100 '
b11100000110000000000000000000100 +
#334
b110 3
b1000011010000000100000 &
#336
b0 +
b0 '
b110 4
b1000011010000000100100 7
b11100000110000000000000000000100 #
b1000011010000000100000 $
#338
b11100000110000000000000000000100 '
b110 /
b11100000110000000000000000000100 +
b1000011010000000100000 :
b1000011010000000100000 %
#340
b110 @
b110 9
#342
bx @
#344
b0 +
b0 '
#346
b11100000111000000000000000000100 '
b11100000111000000000000000000100 +
#350
b1000011010000000100100 &
b111 3
#352
b0 +
b0 '
b111 4
b1000011010000000100100 $
b1000011010000000101000 7
b11100000111000000000000000000100 #
#354
b11100000111000000000000000000100 '
b111 /
b11100000111000000000000000000100 +
b1000011010000000100100 %
b1000011010000000100100 :
#356
b111 @
b111 9
#358
bx @
#360
b0 +
b0 '
#362
b11100001000000000000000000000100 '
b11100001000000000000000000000100 +
#366
b1000 3
b1000011010000000101000 &
#368
b0 +
b0 '
b1000 4
b11100001000000000000000000000100 #
b1000011010000000101100 7
b1000011010000000101000 $
#370
b11100001000000000000000000000100 '
b1000 /
b11100001000000000000000000000100 +
b1000011010000000101000 :
b1000011010000000101000 %
#372
b1000 @
b1000 9
#374
bx @
#376
b0 +
b0 '
#378
b11100001001000000000000000000100 '
b11100001001000000000000000000100 +
#382
b1000011010000000101100 &
b1001 3
#384
b0 +
b0 '
b1001 4
b1000011010000000101100 $
b1000011010000000110000 7
b11100001001000000000000000000100 #
#386
b11100001001000000000000000000100 '
b1001 /
b11100001001000000000000000000100 +
b1000011010000000101100 %
b1000011010000000101100 :
#388
b1001 @
b1001 9
#390
bx @
#392
b0 +
b0 '
#394
b11100001010000000000000000000100 '
b11100001010000000000000000000100 +
#398
b1010 3
b1000011010000000110000 &
#400
b0 +
b0 '
b1010 4
b11100001010000000000000000000100 #
b1000011010000000110000 $
b1000011010000000110100 7
#402
b11100001010000000000000000000100 '
b1010 /
b11100001010000000000000000000100 +
b1000011010000000110000 :
b1000011010000000110000 %
#404
b1010 @
b1010 9
#406
bx @
#408
b0 +
b0 '
#410
b11100001011000000000000000000100 '
b11100001011000000000000000000100 +
#414
b1000011010000000110100 &
b1011 3
#416
b0 +
b0 '
b1011 4
b1000011010000000111000 7
b1000011010000000110100 $
b11100001011000000000000000000100 #
#418
b11100001011000000000000000000100 '
b1011 /
b11100001011000000000000000000100 +
b1000011010000000110100 %
b1000011010000000110100 :
#420
b1011 @
b1011 9
#422
bx @
#424
b0 +
b0 '
#426
b11100001100000000000000000000100 '
b11100001100000000000000000000100 +
#430
b1100 3
b1000011010000000111000 &
#432
b0 +
b0 '
b1100 4
b11100001100000000000000000000100 #
b1000011010000000111000 $
b1000011010000000111100 7
#434
b11100001100000000000000000000100 '
b1100 /
b11100001100000000000000000000100 +
b1000011010000000111000 :
b1000011010000000111000 %
#436
b1100 @
b1100 9
#438
bx @
#440
b0 +
b0 '
#442
b11100001101000000000000000000100 '
b11100001101000000000000000000100 +
#446
b1000011010000000111100 &
b1101 3
#448
b0 +
b0 '
b1101 4
b1000011010000001000000 7
b11100001101000000000000000000100 #
b1000011010000000111100 $
#450
b11100001101000000000000000000100 '
b1101 /
b11100001101000000000000000000100 +
b1000011010000000111100 %
b1000011010000000111100 :
#452
b1101 @
b1101 9
#454
bx @
#456
b0 +
b0 '
#458
b11100001110000000000000000000100 '
b11100001110000000000000000000100 +
#462
b1110 3
b1000011010000001000000 &
#464
b0 +
b0 '
b1110 4
b1000011010000001000000 $
b11100001110000000000000000000100 #
b1000011010000001000100 7
#466
b11100001110000000000000000000100 '
b1110 /
b11100001110000000000000000000100 +
b1000011010000001000000 :
b1000011010000001000000 %
#468
b1110 @
b1110 9
#470
bx @
#472
b0 +
b0 '
#474
b11100001111000000000000000000100 '
b11100001111000000000000000000100 +
#478
b1000011010000001000100 &
b1111 3
#480
b0 +
b0 '
b1111 4
b1000011010000001001000 7
b11100001111000000000000000000100 #
b1000011010000001000100 $
#482
b11100001111000000000000000000100 '
b1111 /
b11100001111000000000000000000100 +
b1000011010000001000100 %
b1000011010000001000100 :
#484
b1111 @
b1111 9
#486
bx @
#488
b0 +
b0 '
#490
b11100010000000000000000000000100 '
b11100010000000000000000000000100 +
#494
b10000 3
b1000011010000001001000 &
#496
b0 +
b0 '
b10000 4
b1000011010000001001000 $
b1000011010000001001100 7
b11100010000000000000000000000100 #
#498
b11100010000000000000000000000100 '
b10000 /
b11100010000000000000000000000100 +
b1000011010000001001000 :
b1000011010000001001000 %
#500
b10000 @
b10000 9
#502
bx @
#504
b0 +
b0 '
#506
b11100010001000000000000000000100 '
b11100010001000000000000000000100 +
#510
b1000011010000001001100 &
b10001 3
#512
b0 +
b0 '
b10001 4
b11100010001000000000000000000100 #
b1000011010000001010000 7
b1000011010000001001100 $
#514
b11100010001000000000000000000100 '
b10001 /
b11100010001000000000000000000100 +
b1000011010000001001100 %
b1000011010000001001100 :
#516
b10001 @
b10001 9
#518
bx @
#520
b0 +
b0 '
#522
b11100010010000000000000000000100 '
b11100010010000000000000000000100 +
#526
b10010 3
b1000011010000001010000 &
#528
b0 +
b0 '
b10010 4
b1000011010000001010000 $
b1000011010000001010100 7
b11100010010000000000000000000100 #
#530
b11100010010000000000000000000100 '
b10010 /
b11100010010000000000000000000100 +
b1000011010000001010000 :
b1000011010000001010000 %
#532
b10010 @
b10010 9
#534
bx @
#536
b0 +
b0 '
#538
b11100010011000000000000000000100 '
b11100010011000000000000000000100 +
#542
b1000011010000001010100 &
b10011 3
#544
b0 +
b0 '
b10011 4
b11100010011000000000000000000100 #
b1000011010000001010100 $
b1000011010000001011000 7
#546
b11100010011000000000000000000100 '
b10011 /
b11100010011000000000000000000100 +
b1000011010000001010100 %
b1000011010000001010100 :
#548
b10011 @
b10011 9
#550
bx @
#552
b0 +
b0 '
#554
b11100010100000000000000000000100 '
b11100010100000000000000000000100 +
#558
b10100 3
b1000011010000001011000 &
#560
b0 +
b0 '
b10100 4
b1000011010000001011100 7
b1000011010000001011000 $
b11100010100000000000000000000100 #
#562
b11100010100000000000000000000100 '
b10100 /
b11100010100000000000000000000100 +
b1000011010000001011000 :
b1000011010000001011000 %
#564
b10100 @
b10100 9
#566
bx @
#568
b0 +
b0 '
#570
b11100010101000000000000000000100 '
b11100010101000000000000000000100 +
#574
b1000011010000001011100 &
b10101 3
#576
b0 +
b0 '
b10101 4
b11100010101000000000000000000100 #
b1000011010000001011100 $
b1000011010000001100000 7
#578
b11100010101000000000000000000100 '
b10101 /
b11100010101000000000000000000100 +
b1000011010000001011100 %
b1000011010000001011100 :
#580
b10101 @
b10101 9
#582
bx @
#584
b0 +
b0 '
#586
b11100010110000000000000000000100 '
b11100010110000000000000000000100 +
#590
b10110 3
b1000011010000001100000 &
#592
b0 +
b0 '
b10110 4
b1000011010000001100100 7
b11100010110000000000000000000100 #
b1000011010000001100000 $
#594
b11100010110000000000000000000100 '
b10110 /
b11100010110000000000000000000100 +
b1000011010000001100000 :
b1000011010000001100000 %
#596
b10110 @
b10110 9
#598
bx @
#600
b0 +
b0 '
#602
b11100010111000000000000000000100 '
b11100010111000000000000000000100 +
#606
b1000011010000001100100 &
b10111 3
#608
b0 +
b0 '
b10111 4
b1000011010000001100100 $
b11100010111000000000000000000100 #
b1000011010000001101000 7
#610
b11100010111000000000000000000100 '
b10111 /
b11100010111000000000000000000100 +
b1000011010000001100100 %
b1000011010000001100100 :
#612
b10111 @
b10111 9
#614
bx @
#616
b0 +
b0 '
#618
b11100011000000000000000000000100 '
b11100011000000000000000000000100 +
#622
b11000 3
b1000011010000001101000 &
#624
b0 +
b0 '
b11000 4
b1000011010000001101100 7
b11100011000000000000000000000100 #
b1000011010000001101000 $
#626
b11100011000000000000000000000100 '
b11000 /
b11100011000000000000000000000100 +
b1000011010000001101000 :
b1000011010000001101000 %
#628
b11000 @
b11000 9
#630
bx @
#632
b0 +
b0 '
#634
b11100011010000000000000000000100 '
b11100011010000000000000000000100 +
#638
b1000011010000001101100 &
b11010 3
#640
b0 +
b0 '
b11010 4
b1000011010000001101100 $
b1000011010000001110000 7
b11100011010000000000000000000100 #
#642
b11100011010000000000000000000100 '
b11010 /
b11100011010000000000000000000100 +
b1000011010000001101100 %
b1000011010000001101100 :
#644
b11010 @
b11010 9
#646
bx @
#648
b0 +
b0 '
#650
b11100011011000000000000000000100 '
b11100011011000000000000000000100 +
#654
b11011 3
b1000011010000001110000 &
#656
b0 +
b0 '
b11011 4
b11100011011000000000000000000100 #
b1000011010000001110100 7
b1000011010000001110000 $
#658
b11100011011000000000000000000100 '
b11011 /
b11100011011000000000000000000100 +
b1000011010000001110000 :
b1000011010000001110000 %
#660
b11011 @
b11011 9
#662
bx @
#664
b0 +
b0 '
#666
b11100011100000000000000000000100 '
b11100011100000000000000000000100 +
#670
b1000011010000001110100 &
b11100 3
#672
b0 +
b0 '
b11100 4
b1000011010000001110100 $
b1000011010000001111000 7
b11100011100000000000000000000100 #
#674
b11100011100000000000000000000100 '
b11100 /
b11100011100000000000000000000100 +
b1000011010000001110100 %
b1000011010000001110100 :
#676
b11100 @
b11100 9
#678
bx @
#680
b0 +
b0 '
#682
b11100011101000000000000000000100 '
b11100011101000000000000000000100 +
#686
b11101 3
b1000011010000001111000 &
#688
b0 +
b0 '
b11101 4
b11100011101000000000000000000100 #
b1000011010000001111000 $
b1000011010000001111100 7
#690
b11100011101000000000000000000100 '
b11101 /
b11100011101000000000000000000100 +
b1000011010000001111000 :
b1000011010000001111000 %
#692
b11101 @
b11101 9
#694
bx @
#696
b0 +
b0 '
#698
b11100011110000000000000000000100 '
b11100011110000000000000000000100 +
#702
b1000011010000001111100 &
b11110 3
#704
b0 +
b0 '
b11110 4
b1000011010000010000000 7
b1000011010000001111100 $
b11100011110000000000000000000100 #
#706
b11100011110000000000000000000100 '
b11110 /
b11100011110000000000000000000100 +
b1000011010000001111100 %
b1000011010000001111100 :
#708
b11110 @
b11110 9
#710
bx @
#712
b0 +
b0 '
#714
b11100011111000000000000000000100 '
b11100011111000000000000000000100 +
#718
b11111 3
b1000011010000010000000 &
#720
b0 +
b0 '
b11111 4
b11100011111000000000000000000100 #
b1000011010000010000000 $
b1000011010000010000100 7
#722
b11100011111000000000000000000100 '
b11111 /
b11100011111000000000000000000100 +
b1000011010000010000000 :
b1000011010000010000000 %
#724
b11111 @
b11111 9
#726
bx @
#728
b0 +
b0 '
#730
b11000001000001100000000100000 '
b11000001000001100000000100000 +
#732
b11000 6
#734
b1000011010000010000100 &
b11000 2
b1 3
#736
b0 +
b0 '
b1 4
b1000011010000010001000 7
b11000001000001100000000100000 #
b1000011010000010000100 $
#738
b10000000000000000000001000000 ,
b0 6
b11000001000001100000000100000 '
b0 @
b1 /
b11000001000001100000000100000 +
b1000011010000010000100 %
b1000011010000010000100 :
#740
b11000 6
b1 @
b1 9
b0x000000000000000000000x000000 *
#742
b0 @
#744
b0 +
b0 '
#746
b10101000001000010000000000000000 '
b10101000001000010000000000000000 +
b0 6
#748
b1 5
b10000000000000000000001000000 *
#750
b1 1
b1000011010000010001000 &
b0 2
#752
b0 +
b1000011010000010001000 $
b0 '
b10101000001000010000000000000000 #
b1000011010000010001100 7
#754
b10101000001000010000000000000000 +
b1000011010000010001000 :
b1000011010000010001000 %
b10101000001000010000000000000000 '
b0 5
#756
b1 5
b1 @
#758
b0 @
#760
b0 +
b0 '
#762
b11001010000001100000000011111 '
b0 5
b11001010000001100000000011111 +
#764
b11000 6
#766
b11000 2
b1010 3
b1000011010000010001100 &
b0 1
#768
b0 +
b1010 4
b0 '
b1000011010000010010000 7
b1000011010000010001100 $
b11001010000001100000000011111 #
#770
b0 6
b11001010000001100000000011111 '
b1010 /
b11001010000001100000000011111 +
b1000011010000010001100 %
b1000011010000010001100 :
#772
b1010 @
b11000 6
b1010 9
#774
b0 @
#776
b0 '
b0 +
#778
b10101001010010101110000000000000 +
b10101001010010101110000000000000 '
b0 6
#780
b11100 6
b1010 5
#782
b1010 1
b11100 2
b1000011010000010010000 &
#784
b1000011010000010010100 7
b10101001010010101110000000000000 #
b0 '
b0 +
b1000011010000010010000 $
#786
b0 5
b1000011010000010010000 :
b0 ,
b10101001010010101110000000000000 +
b0 6
b1000011010000010010000 %
b10101001010010101110000000000000 '
#788
b1010 @
b0x000000000000000000000x000000 *
b1010 5
b11100 6
#790
b0 @
#792
b0 '
b0 +
#794
b11011111000000100000000000000 +
b0 6
b11011111000000100000000000000 '
b0 5
#796
b0 *
b1000 6
#798
b0 1
b1000011010000010010100 &
b1000 2
b11111 3
#800
b1000011010000010011000 7
b0 +
b1000011010000010010100 $
b11111 4
b0 '
b11011111000000100000000000000 #
#802
b1000011010000010010100 :
b11011111000000100000000000000 +
b0 6
b11111 /
b11011111000000100000000000000 '
b10000000000000000000001000000 ,
b1000011010000010010100 %
#804
b1000 6
b11111 @
b11111 9
b0x000000000000000000000x000000 *
#806
b0 @
#808
b0 +
b0 '
#810
b11100011111111110101000000000000 '
b0 6
b11100011111111110101000000000000 +
#812
b11111 5
b10000000000000000000001000000 *
b1010 6
#814
b11111 1
b1010 2
b1000011010000010011000 &
#816
b1000011010000010011000 $
b0 '
b0 +
b11100011111111110101000000000000 #
b1000011010000010011100 7
#818
b0 5
b0 6
b1000011010000010011000 %
b11100011111111110101000000000000 +
b11100011111111110101000000000000 '
b1000011010000010011000 :
b0 ,
b11000000000111111110000000000000 -
b11000000000111111110000000000000 ?
#820
b11111 5
b11111 @
b1010 6
b0x000000000000000000000x000000 *
#822
b0 @
#824
b0 '
b0 +
#826
b11010100000111110000100000111000 +
b11010100000111110000100000111000 '
b0 5
b0 6
#828
b1 6
b0 *
b11111 5
#830
b1000011010000010011100 &
b0 3
b1 2
#832
b0 '
b1000011010000010100000 7
b11010100000111110000100000111000 #
b0 +
b1000011010000010011100 $
b0 4
#834
b11010100000111110000100000111000 +
b11010100000111110000100000111000 '
b0 6
b111111110000000111000 .
b0 5
b111000 @
b11000000001000000000000000000000 ?
b1000011010000010011100 %
b0 /
b11000000001000000000000000000000 -
b1000011010000010011100 :
#836
b1 6
b11111 5
b0 9
#838
b111111110000000111000 0
b11000000001000000000000000000000 (
#840
b0 '
b0 +
#842
b10101000100000000000000000000000 +
b10101000100000000000000000000000 '
b0 6
b0 5
#846
b0 2
b1000011010000010100000 &
b0 1
b100 3
#848
b100 4
b0 '
b0 +
b1000011010000010100100 7
b10101000100000000000000000000000 #
b1000011010000010100000 $
#850
b10101000100000000000000000000000 +
b10101000100000000000000000000000 '
bx @
b1000011010000010100000 :
bx ?
b1000011010000010100000 %
bx -
b100 /
#852
b100 @
b100 9
#854
bx @
#856
b0 +
b0 '
#862
b11000000001000000000000000000000 '
b11000000001000000000000000000000 +
b0 0
#864
b0 '
b0 +
#866
b11000000001000000000000000000000 +
b11000000001000000000000000000000 '
#872
b0 '
b0 +
#874
b11011000000001100000001000100 +
b11011000000001100000001000100 '
#876
b11000 6
#878
b11000 3
b11000 2
b1000011010000010100100 &
#880
b11000 4
b1000011010000010101000 7
b1000011010000010100100 $
b11011000000001100000001000100 #
b0 '
b0 +
#882
b11011000000001100000001000100 +
b0 6
b1000011010000010100100 :
b0 @
b11000 /
b11011000000001100000001000100 '
b10000000000000000000001000000 ,
b1000011010000010100100 %
#884
b11000 @
b11000 6
b0x000000000000000000000x000000 *
b11000 9
#886
b0 @
#888
b0 +
b0 '
#890
b10101011000110001000000000000000 '
b10101011000110001000000000000000 +
b0 6
#892
b10000 6
b11000 5
b10000000000000000000001000000 *
#894
b1000011010000010101000 &
b10000 2
b11000 1
#896
b1000011010000010101100 7
b0 '
b0 +
b1000011010000010101000 $
b10101011000110001000000000000000 #
#898
b0 6
b1000011010000010101000 %
b1000011010000010101000 :
b0 5
b0 ,
b10101011000110001000000000000000 +
b10101011000110001000000000000000 '
#900
b0x000000000000000000000x000000 *
b11000 @
b10000 6
b11000 5
#902
b0 @
#904
b0 '
b0 +
#906
b11011010000001100000001000101 +
b0 5
b11011010000001100000001000101 '
b0 6
#908
b11000 6
b0 *
#910
b11010 3
b0 1
b1000011010000010101100 &
b11000 2
#912
b0 +
b11010 4
b11011010000001100000001000101 #
b0 '
b1000011010000010101100 $
b1000011010000010110000 7
#914
b0 6
b1000011010000010101100 %
b11011010000001100000001000101 +
b1000011010000010101100 :
b11011010000001100000001000101 '
b11010 /
b10000000000000000000001000000 ,
b11000000010001001000000000000000 -
b11000000010001001000000000000000 ?
#916
b11010 @
b11000 6
b11010 9
b0x000000000000000000000x000000 *
#918
b0 @
#920
b0 +
b0 '
#922
b10101011010110100101101100100000 '
b0 6
b10101011010110100101101100100000 +
#924
b10000000000000000000001000000 *
b1011 6
b11010 5
#926
b1011 2
b1000011010000010110000 &
b11010 1
#928
b1000011010000010110100 7
b0 +
b0 '
b10101011010110100101101100100000 #
b1000011010000010110000 $
#930
b10101011010110100101101100100000 +
b0 5
b1000011010000010110000 %
bx ?
b10101011010110100101101100100000 '
b0 6
b100000 @
b0 ,
b1000011010000010110000 :
bx -
#932
b11010 5
b1011 6
b0x000000000000000000000x000000 *
b11010 @
#934
b100000 @
#936
b0 +
b0 '
#938
b11011100000000100000000000000 '
b11011100000000100000000000000 +
b0 6
b0 5
#940
b1000 6
b0 *
#942
b11100 3
b0 1
b1000 2
b1000011010000010110100 &
#944
b11100 4
b1000011010000010110100 $
b1000011010000010111000 7
b11011100000000100000000000000 #
b0 +
b0 '
#946
b11011100000000100000000000000 '
b1000011010000010110100 %
b0 @
b11011100000000100000000000000 +
b0 6
b10000000000000000000001000000 ,
b1000011010000010110100 :
b11100 /
#948
b0x000000000000000000000x000000 *
b11100 9
b11100 @
b1000 6
#950
b0 @
#952
b0 '
b0 +
#954
b11100011100111001100000000000000 +
b11100011100111001100000000000000 '
b0 6
#956
b11000 6
b10000000000000000000001000000 *
b11100 5
#958
b1000011010000010111000 &
b11000 2
b11100 1
#960
b1000011010000010111000 $
b0 '
b0 +
b11100011100111001100000000000000 #
b1000011010000010111100 7
#962
b0 6
b11000000010001001000000000000000 -
b0 5
b1000011010000010111000 %
b11000000010001001000000000000000 ?
b1000011010000010111000 :
b11100011100111001100000000000000 +
b11100011100111001100000000000000 '
b0 ,
#964
b11100 5
b11000 6
b11100 @
b0x000000000000000000000x000000 *
#966
b0 @
#968
b0 '
b0 +
#970
b11011110000000100000000000000 +
b0 6
b0 5
b11011110000000100000000000000 '
#972
b1000 6
b0 *
#974
b0 1
b11110 3
b1000011010000010111100 &
b1000 2
#976
b1000011010000011000000 7
b0 '
b0 +
b11110 4
b11011110000000100000000000000 #
b1000011010000010111100 $
#978
b11011110000000100000000000000 +
b11011110000000100000000000000 '
bx -
b11110 /
b10000000000000000000001000000 ,
b0 6
b1000011010000010111100 %
b1000011010000010111100 :
bx ?
#980
b0x000000000000000000000x000000 *
b11110 9
b11110 @
b1000 6
#982
b0 @
#984
b0 +
b0 '
#986
b11100011110111101101000000000000 '
b11100011110111101101000000000000 +
b0 6
#988
b11010 6
b11110 5
b10000000000000000000001000000 *
#990
b11010 2
b11110 1
b1000011010000011000000 &
#992
b0 '
b1000011010000011000100 7
b1000011010000011000000 $
b0 +
b11100011110111101101000000000000 #
#994
b11100011110111101101000000000000 '
b11000000010001010101101100100000 -
b100000 @
b11000000010001010101101100100000 ?
b11100011110111101101000000000000 +
b0 ,
b0 5
b0 6
b1000011010000011000000 :
b1000011010000011000000 %
#996
b11110 @
b0x000000000000000000000x000000 *
b11010 6
b11110 5
#998
b100000 @
#1000
b0 '
b0 +
#1002
b11100011000000000000000000000100 +
b0 5
b11100011000000000000000000000100 '
b0 6
#1004
b0 *
#1006
b0 2
b1000011010000011000100 &
b0 1
b11000 3
#1008
b0 +
b11100011000000000000000000000100 #
b1000011010000011001000 7
b1000011010000011000100 $
b0 '
b11000 4
#1010
b11000 /
b1000011010000011000100 %
b11100011000000000000000000000100 +
bx @
bx -
b11100011000000000000000000000100 '
bx ?
b1000011010000011000100 :
#1012
b11000 @
b11000 9
#1014
bx @
#1016
b0 +
b0 '
#1018
b11100011010000000000000000000100 '
b11100011010000000000000000000100 +
#1022
b11010 3
b1000011010000011001000 &
#1024
b0 +
b11010 4
b11100011010000000000000000000100 #
b0 '
b1000011010000011001000 $
b1000011010000011001100 7
#1026
b11100011010000000000000000000100 +
b1000011010000011001000 :
b11010 /
b1000011010000011001000 %
b11100011010000000000000000000100 '
#1028
b11010 @
b11010 9
#1030
bx @
#1032
b0 '
b0 +
#1034
b11010100000111000000000000000000 +
b11010100000111000000000000000000 '
#1036
b11100 5
#1038
b1000011010000011001100 &
b11100 1
b0 3
#1040
b0 +
b0 4
b1000011010000011010000 7
b0 '
b1000011010000011001100 $
b11010100000111000000000000000000 #
